…
``` r
library(dplyr, warn.conflicts = FALSE)
#> Warning: package 'dplyr' was built under R version 3.4.2
library(tjmisc)
set.seed(11022017)

data <- tibble::tibble(
  day = 1:10 %>% rep(10) %>% sort(),
  id  = 1:10 %>% rep(10),
  block = letters[1:5] %>% rep(10) %>% sort() %>% rep(2),
  value = rnorm(100) %>% round(2))

# data from 3 days
sample_n_of(data, 3, day)
#> # A tibble: 30 x 4
#>      day    id block value
#>    <int> <int> <chr> <dbl>
#>  1     2     1     b  1.01
#>  2     2     2     b  1.28
#>  3     2     3     b -1.40
#>  4     2     4     b -0.46
#>  5     2     5     b  0.98
#>  6     2     6     b  2.05
#>  7     2     7     b  0.11
#>  8     2     8     b  0.15
#>  9     2     9     b  0.18
#> 10     2    10     b -1.54
#> # ... with 20 more rows
…
